^C:\USERS\500167161\SOURCE\REPOS\LAB EXERCISE 2\LAB EXERCISE 2\MAIN.CPP
C:\USERS\500167161\SOURCE\REPOS\LAB EXERCISE 2\LAB EXERCISE 2\DEBUG\VC141.PDB
C:\USERS\500167161\SOURCE\REPOS\LAB EXERCISE 2\LAB EXERCISE 2\DEBUG\VC141.IDB
C:\USERS\500167161\SOURCE\REPOS\LAB EXERCISE 2\LAB EXERCISE 2\DEBUG\MAIN.OBJ
